{
    "host": "localhost",
    "port": 3000,
    "portalClienteURI": "http://localhost:8080",
    "orsegupsId": {
        "uri": "http://orsegups-id-homol.us-east-1.elasticbeanstalk.com",
        "username": "incuca",
        "password": "bGciOiJSUzI1NiIsInR5cCI6IkpXVCJ"
    },
    "portalMobile": {
        "uri": "http://portal-mobile-prod.sa-east-1.elasticbeanstalk.com",
        "accessToken": "499c7a9a40f3bcda2c54471d03f494dc"
    },
    "database": {
        "host": "localhost",
        "database": "orsegups",
        "username": "orsegups",
        "password": "orsegups",
        "dialect": "mysql"
    }    
}