{
    "host": "api-gateway.us-east-1.elasticbeanstalk.com",
    "port": 80,
    "portalClienteURI": "http://newgate-front.us-east-1.elasticbeanstalk.com",
    "orsegupsId": {
        "uri": "http://orsegups-id-homol.us-east-1.elasticbeanstalk.com",
        "username": "incuca",
        "password": "bGciOiJSUzI1NiIsInR5cCI6IkpXVCJ"
    },
    "portalMobile": {
        "uri": "http://portal-mobile-prod.sa-east-1.elasticbeanstalk.com",
        "accessToken": "499c7a9a40f3bcda2c54471d03f494dc"
    },
    "database": {
        "host": "orsegups-visitor.cwonck6crdei.us-east-1.rds.amazonaws.com",
        "database": "gateway",
        "username": "gateway",
        "password": "OrSegups12345",
        "dialect": "mysql"
    }
}